module SnooYTBust

go 1.14

require (
	github.com/BurntSushi/toml v0.3.1
	github.com/glaslos/tlsh v0.2.1-0.20190803090415-ef1954596284
	github.com/go-pg/pg/v9 v9.2.0
	github.com/mattn/go-colorable v0.1.8 // indirect
	github.com/mgutz/ansi v0.0.0-20200706080929-d51e80ef957d // indirect
	github.com/sirupsen/logrus v1.8.1
	github.com/slack-go/slack v0.8.2
	github.com/ttgmpsn/mira v0.1.12
	github.com/x-cray/logrus-prefixed-formatter v0.5.2
	google.golang.org/api v0.42.0
)
